{
  "phrases": {
    "shop": {
      "search": "Navn",
      "sort": {
        "priceAscending": "Pris op",
        "priceDescending": "Pris ned"
      },
      "unpurchasable": "Vis utilgængelig",
      "unowned": "Vis uejet",
      "equipped": "UDSTYRET",
      "purchase": {
        "canAfford": {
          "title": "Køb :name:",
          "desc": "Er du sikker på, at du vil købe :name: for :price:?",
          "yes": "Køb",
          "no": "Nej"
        },
        "cantAfford": {
          "title": "Køb :name:",
          "desc": "Du har ikke råd :name:, det koster :price:",
          "btn": "Forstået"
        }
      },
      "card": {
        "unpurchasable": "Ukøbelige",
        "popup": {
          "title": "Ukøbelige",
          "desc": "Dette kort kan ikke købes",
          "btn": "Forstået"
        },
        "dontMeetRequirements": {
          "title": "Rangkrav",
          "desc": "Du opfylder ikke brugergruppens krav til dette kort.",
          "btn:": "Forstået"
        }
      }
    },
    "card": {
      "phrases": {
        "suicide": "Der blev foretaget fejl",
        "world": "Det gjorde ondt, hva?",
        "player": "Du blev dræbt"
      },
      "level": "Lvl. :level:",
      "suicide": "Selvmord",
      "world": "Verden",
      "dmg": "Du gav :dealtDmg: damage in :dealtHits: & modtog :receivedDmg: skade i :receivedHits:.",
      "hits": {
        "singular": "hit",
        "plural": "hits"
      }
    }
  }
}
