{
  "phrases": {
  	"info": {
  		"Tiers": ":tiers: niveau",
  		"Rewards": ":rewards: belønning",
  		"Challenges": ":challenges: udfordringsstadier",
  	},
  	"misc": {
  		"Page": "SIDE :currentPage:/:totalPages:",
  		"Max": "MAX TIER",
  		"Unlock": "Lås op"
  	},
  	"purchase": {
  		"Pass": "Køb Battle Pass",
  		"Tiers": "Køb niveauer",
  		"Website": {
  			"Title": "Køber Battle Pass",
  			"Body": "Gå til butikken på vores hjemmeside for at købe",
  			"Yes": "Gå til websted",
  			"No": "Nevermind",
  			"Tiers": "Køb af niveauer"
  		}
  	},
  	"challenges": {
  		"Challenges": ":challenges: udfordringer",
  		"Stages": "| :stages: etaper",
  		"Star": {
  			"Description": "Stjerner tildelt ved at gennemføre denne udfordring",
  			"Tooltip": "Du er på etape :currentStage: ud af :goal: etaper"
  		}
  	},
  	"notifications": {
  		"Reward": "Du afsluttede udfordring [:name:] til en belønning af :stars: stjerner",
  		"Stage": "Du afsluttede et trin med udfordringen [:name:] til en belønning af :stars: stjerner",
  		"LevelUp": "Du nivellerede dit Battle Pass til niveau:level::",
  		"ClaimReward": "Kræv dine nye belønninger i Battle Pass!"
  	},
  	"tabs": {
  		"BattlePass": "BATTLE PASS",
  		"Challenges": "CHALLENGES",
  		"Help": "HJÆLP"
  	}
  }
}
